<?xml version="1.0" encoding="UTF-8"?>
<!DOCTYPE suite SYSTEM "https://testng.org/testng-1.0.dtd">
<suite thread-count="6" parallel="classes" name="Failed suite [Cucumber Parallel Suite]" guice-stage="DEVELOPMENT" verbose="0">
  <test thread-count="6" parallel="classes" name="Cucumber Tests(failed)" verbose="0">
    <classes>
      <class name="runner.TestRunner">
        <methods>
          <include name="setUpClass"/>
          <include name="after_all"/>
          <include name="runScenario" invocation-numbers="0"/>
          <include name="tearDownClass"/>
        </methods>
      </class> <!-- runner.TestRunner -->
    </classes>
  </test> <!-- Cucumber Tests(failed) -->
</suite> <!-- Failed suite [Cucumber Parallel Suite] -->
